[
  {
    "name": "[Lorg.eclipse.jetty.servlet.ServletMapping;",
    "allDeclaredFields": true,
    "allPublicFields": true,
    "allDeclaredMethods": true,
    "allPublicMethods": true
  },
  {
    "name": "org.slf4j.impl.StaticLoggerBinder",
    "allDeclaredFields": true,
    "allPublicFields": true,
    "allDeclaredMethods": true,
    "allPublicMethods": true
  },
  {
    "name": "com.fasterxml.jackson.databind.ObjectMapper",
    "allDeclaredFields": true,
    "allPublicFields": true,
    "allDeclaredMethods": true,
    "allPublicMethods": true
  },
  {
    "name": "io.micrometer.core.instrument.Metrics",
    "allDeclaredFields": true,
    "allPublicFields": true,
    "allDeclaredMethods": true,
    "allPublicMethods": true
  },
  {
	  "name": "PaymentRequestJsonAdapter",
    "allDeclaredConstructors" : true,
    "allDeclaredFields": true,
    "allPublicFields": true,
    "allDeclaredMethods": true,
    "allPublicMethods": true
  },
  {
	  "name": "PaymentRequest",
    "allDeclaredConstructors" : true,
    "allDeclaredFields": true,
    "allPublicFields": true,
    "allDeclaredMethods": true,
    "allPublicMethods": true
  }
]
